EESchema Schematic File Version 4
EELAYER 30 0
EELAYER END
$Descr A4 11693 8268
encoding utf-8
Sheet 1 1
Title ""
Date ""
Rev ""
Comp ""
Comment1 ""
Comment2 ""
Comment3 ""
Comment4 ""
$EndDescr
$Comp
L Device:L L1
U 1 1 60E463B0
P 3775 2650
F 0 "L1" V 3880 2740 50  0000 C CNN
F 1 "680uH" V 3875 2550 50  0000 C CNN
F 2 "Inductor_SMD:L_7.3x7.3_H3.5" H 3775 2650 50  0001 C CNN
F 3 "~" H 3775 2650 50  0001 C CNN
	1    3775 2650
	0    -1   -1   0   
$EndComp
$Comp
L Connector:Conn_Coaxial J1
U 1 1 60E482D6
P 3000 2000
F 0 "J1" H 3005 2155 50  0000 C CNN
F 1 "Conn_Coaxial" H 2928 2147 50  0001 C CNN
F 2 "Connector_Coaxial:SMA_Samtec_SMA-J-P-X-ST-EM1_EdgeMount" H 3000 2000 50  0001 C CNN
F 3 " ~" H 3000 2000 50  0001 C CNN
	1    3000 2000
	-1   0    0    -1  
$EndComp
$Comp
L Connector:Conn_Coaxial J4
U 1 1 60E4997E
P 9200 2000
F 0 "J4" H 9205 2155 50  0000 C CNN
F 1 "Conn_Coaxial" H 9128 2147 50  0001 C CNN
F 2 "Connector_Coaxial:SMA_Samtec_SMA-J-P-X-ST-EM1_EdgeMount" H 9200 2000 50  0001 C CNN
F 3 " ~" H 9200 2000 50  0001 C CNN
	1    9200 2000
	1    0    0    -1  
$EndComp
$Comp
L Device:L L2
U 1 1 60E4D7CF
P 7100 2650
F 0 "L2" V 7205 2740 50  0000 C CNN
F 1 "680uH" V 7200 2550 50  0000 C CNN
F 2 "Inductor_SMD:L_7.3x7.3_H3.5" H 7100 2650 50  0001 C CNN
F 3 "~" H 7100 2650 50  0001 C CNN
	1    7100 2650
	0    -1   -1   0   
$EndComp
$Comp
L Device:C C1
U 1 1 60E4D880
P 5650 2000
F 0 "C1" V 5850 2100 50  0000 C CNN
F 1 "100pF" V 5850 1900 50  0000 C CNN
F 2 "Capacitor_SMD:C_0805_2012Metric_Pad1.15x1.40mm_HandSolder" H 5688 1850 50  0001 C CNN
F 3 "~" H 5650 2000 50  0001 C CNN
	1    5650 2000
	0    -1   -1   0   
$EndComp
Wire Wire Line
	5800 2000 6070 2000
Wire Wire Line
	3625 2650 3600 2650
Connection ~ 3600 2000
Wire Wire Line
	3600 2000 5220 2000
Wire Wire Line
	7250 2650 7650 2650
Connection ~ 7650 2000
$Comp
L Device:R R2
U 1 1 60E528AB
P 4750 3800
F 0 "R2" H 4820 3846 50  0000 L CNN
F 1 "1k" H 4820 3755 50  0000 L CNN
F 2 "Resistor_SMD:R_0805_2012Metric_Pad1.15x1.40mm_HandSolder" V 4680 3800 50  0001 C CNN
F 3 "~" H 4750 3800 50  0001 C CNN
	1    4750 3800
	1    0    0    -1  
$EndComp
$Comp
L Device:R R3
U 1 1 60E5406A
P 5000 3800
F 0 "R3" H 5070 3846 50  0000 L CNN
F 1 "1k" H 5070 3755 50  0000 L CNN
F 2 "Resistor_SMD:R_0805_2012Metric_Pad1.15x1.40mm_HandSolder" V 4930 3800 50  0001 C CNN
F 3 "~" H 5000 3800 50  0001 C CNN
	1    5000 3800
	1    0    0    -1  
$EndComp
$Comp
L Device:R R4
U 1 1 60E542E4
P 5250 3800
F 0 "R4" H 5320 3846 50  0000 L CNN
F 1 "1k" H 5320 3755 50  0000 L CNN
F 2 "Resistor_SMD:R_0805_2012Metric_Pad1.15x1.40mm_HandSolder" V 5180 3800 50  0001 C CNN
F 3 "~" H 5250 3800 50  0001 C CNN
	1    5250 3800
	1    0    0    -1  
$EndComp
$Comp
L Device:R R5
U 1 1 60E5467E
P 5500 3800
F 0 "R5" H 5570 3846 50  0000 L CNN
F 1 "1k" H 5570 3755 50  0000 L CNN
F 2 "Resistor_SMD:R_0805_2012Metric_Pad1.15x1.40mm_HandSolder" V 5430 3800 50  0001 C CNN
F 3 "~" H 5500 3800 50  0001 C CNN
	1    5500 3800
	1    0    0    -1  
$EndComp
$Comp
L Device:R R6
U 1 1 60E54961
P 5750 3800
F 0 "R6" H 5820 3846 50  0000 L CNN
F 1 "1k" H 5820 3755 50  0000 L CNN
F 2 "Resistor_SMD:R_0805_2012Metric_Pad1.15x1.40mm_HandSolder" V 5680 3800 50  0001 C CNN
F 3 "~" H 5750 3800 50  0001 C CNN
	1    5750 3800
	1    0    0    -1  
$EndComp
$Comp
L Device:R R7
U 1 1 60E54BC0
P 6000 3800
F 0 "R7" H 6070 3846 50  0000 L CNN
F 1 "1k" H 6070 3755 50  0000 L CNN
F 2 "Resistor_SMD:R_0805_2012Metric_Pad1.15x1.40mm_HandSolder" V 5930 3800 50  0001 C CNN
F 3 "~" H 6000 3800 50  0001 C CNN
	1    6000 3800
	1    0    0    -1  
$EndComp
$Comp
L Device:R R8
U 1 1 60E6493D
P 6250 3800
F 0 "R8" H 6320 3846 50  0000 L CNN
F 1 "1k" H 6320 3755 50  0000 L CNN
F 2 "Resistor_SMD:R_0805_2012Metric_Pad1.15x1.40mm_HandSolder" V 6180 3800 50  0001 C CNN
F 3 "~" H 6250 3800 50  0001 C CNN
	1    6250 3800
	1    0    0    -1  
$EndComp
$Comp
L Device:R R9
U 1 1 60E64943
P 6500 3800
F 0 "R9" H 6570 3846 50  0000 L CNN
F 1 "1k" H 6570 3755 50  0000 L CNN
F 2 "Resistor_SMD:R_0805_2012Metric_Pad1.15x1.40mm_HandSolder" V 6430 3800 50  0001 C CNN
F 3 "~" H 6500 3800 50  0001 C CNN
	1    6500 3800
	1    0    0    -1  
$EndComp
Wire Wire Line
	3000 2200 3000 4250
Wire Wire Line
	4750 3950 4750 4250
Wire Wire Line
	5000 3950 5000 4250
Wire Wire Line
	5250 3950 5250 4250
Wire Wire Line
	5500 3950 5500 4250
Wire Wire Line
	5750 3950 5750 4250
Wire Wire Line
	6000 3950 6000 4250
Wire Wire Line
	6250 3950 6250 4250
Wire Wire Line
	6500 3950 6500 4250
Connection ~ 4750 4250
Connection ~ 5000 4250
Connection ~ 5250 4250
Connection ~ 5500 4250
Connection ~ 5750 4250
Connection ~ 6000 4250
Connection ~ 6250 4250
Connection ~ 6500 4250
Wire Wire Line
	4750 4250 5000 4250
Wire Wire Line
	5000 4250 5250 4250
Wire Wire Line
	5250 4250 5500 4250
Wire Wire Line
	5500 4250 5750 4250
Wire Wire Line
	5750 4250 6000 4250
Wire Wire Line
	6000 4250 6250 4250
Wire Wire Line
	6250 4250 6500 4250
$Comp
L Switch:SW_DIP_x08 SW1
U 1 1 60E5BF39
P 5575 3150
F 0 "SW1" V 5529 3680 50  0000 L CNN
F 1 "SW_DIP_x08" V 5620 3680 50  0000 L CNN
F 2 "Button_Switch_THT:SW_DIP_SPSTx08_Slide_9.78x22.5mm_W7.62mm_P2.54mm" H 5575 3150 50  0001 C CNN
F 3 "~" H 5575 3150 50  0001 C CNN
	1    5575 3150
	0    1    1    0   
$EndComp
Wire Wire Line
	5500 3650 5500 3625
Wire Wire Line
	5500 3625 5575 3625
Wire Wire Line
	5575 3625 5575 3450
Wire Wire Line
	5750 3650 5750 3625
Wire Wire Line
	5750 3625 5675 3625
Wire Wire Line
	5675 3625 5675 3450
Wire Wire Line
	5475 3450 5475 3600
Wire Wire Line
	5475 3600 5250 3600
Wire Wire Line
	5250 3600 5250 3650
Wire Wire Line
	5775 3450 5775 3600
Wire Wire Line
	5775 3600 6000 3600
Wire Wire Line
	6000 3600 6000 3650
Wire Wire Line
	5375 3450 5375 3550
Wire Wire Line
	5375 3550 5000 3550
Wire Wire Line
	5000 3550 5000 3650
Wire Wire Line
	5275 3450 4750 3450
Wire Wire Line
	4750 3450 4750 3650
Wire Wire Line
	5875 3450 5875 3550
Wire Wire Line
	5875 3550 6250 3550
Wire Wire Line
	6250 3550 6250 3650
Wire Wire Line
	5975 3450 6500 3450
Wire Wire Line
	6500 3450 6500 3650
Wire Wire Line
	5275 2650 5275 2850
Wire Wire Line
	5375 2850 5375 2650
Wire Wire Line
	5375 2650 5275 2650
Wire Wire Line
	5375 2650 5475 2650
Wire Wire Line
	5475 2650 5475 2850
Connection ~ 5375 2650
Wire Wire Line
	5475 2650 5575 2650
Wire Wire Line
	5575 2650 5575 2850
Connection ~ 5475 2650
Wire Wire Line
	5675 2650 5675 2850
Connection ~ 5575 2650
Wire Wire Line
	5575 2650 5675 2650
Wire Wire Line
	5775 2850 5775 2650
Wire Wire Line
	5775 2650 5675 2650
Connection ~ 5675 2650
Wire Wire Line
	5775 2650 5875 2650
Wire Wire Line
	5875 2650 5875 2850
Connection ~ 5775 2650
Wire Wire Line
	5875 2650 5975 2650
Wire Wire Line
	5975 2650 5975 2850
Connection ~ 5875 2650
Wire Wire Line
	6950 2650 6775 2650
Connection ~ 5975 2650
Wire Wire Line
	9200 2200 9200 4250
$Comp
L Connector_Generic:Conn_01x02 J2
U 1 1 60E853DD
P 4150 2450
F 0 "J2" V 4068 2262 50  0000 R CNN
F 1 "Conn_01x02" V 4023 2262 50  0001 R CNN
F 2 "Connector_PinHeader_2.54mm:PinHeader_1x02_P2.54mm_Vertical" H 4150 2450 50  0001 C CNN
F 3 "~" H 4150 2450 50  0001 C CNN
	1    4150 2450
	0    -1   -1   0   
$EndComp
Connection ~ 5275 2650
$Comp
L Device:R R1
U 1 1 60E8A9BB
P 4500 3050
F 0 "R1" H 4570 3096 50  0000 L CNN
F 1 "1k" H 4570 3005 50  0000 L CNN
F 2 "Resistor_SMD:R_0805_2012Metric_Pad1.15x1.40mm_HandSolder" V 4430 3050 50  0001 C CNN
F 3 "~" H 4500 3050 50  0001 C CNN
	1    4500 3050
	1    0    0    -1  
$EndComp
$Comp
L Mechanical:MountingHole_Pad H1
U 1 1 60E975AC
P 3800 5800
F 0 "H1" H 3900 5803 50  0000 L CNN
F 1 "MountingHole_Pad" H 3900 5758 50  0001 L CNN
F 2 "MountingHole:MountingHole_3.2mm_M3_Pad_Via" H 3800 5800 50  0001 C CNN
F 3 "~" H 3800 5800 50  0001 C CNN
	1    3800 5800
	1    0    0    -1  
$EndComp
$Comp
L Mechanical:MountingHole_Pad H2
U 1 1 60E98CBB
P 4125 5800
F 0 "H2" H 4225 5803 50  0000 L CNN
F 1 "MountingHole_Pad" H 4225 5758 50  0001 L CNN
F 2 "MountingHole:MountingHole_3.2mm_M3_Pad_Via" H 4125 5800 50  0001 C CNN
F 3 "~" H 4125 5800 50  0001 C CNN
	1    4125 5800
	1    0    0    -1  
$EndComp
$Comp
L Mechanical:MountingHole_Pad H3
U 1 1 60E98F47
P 4450 5800
F 0 "H3" H 4550 5803 50  0000 L CNN
F 1 "MountingHole_Pad" H 4550 5758 50  0001 L CNN
F 2 "MountingHole:MountingHole_3.2mm_M3_Pad_Via" H 4450 5800 50  0001 C CNN
F 3 "~" H 4450 5800 50  0001 C CNN
	1    4450 5800
	1    0    0    -1  
$EndComp
$Comp
L Mechanical:MountingHole_Pad H4
U 1 1 60E9913A
P 4775 5800
F 0 "H4" H 4875 5803 50  0000 L CNN
F 1 "MountingHole_Pad" H 4875 5758 50  0001 L CNN
F 2 "MountingHole:MountingHole_3.2mm_M3_Pad_Via" H 4775 5800 50  0001 C CNN
F 3 "~" H 4775 5800 50  0001 C CNN
	1    4775 5800
	1    0    0    -1  
$EndComp
$Comp
L power:GND #PWR01
U 1 1 60E9B227
P 3000 4450
F 0 "#PWR01" H 3000 4200 50  0001 C CNN
F 1 "GND" H 3005 4277 50  0000 C CNN
F 2 "" H 3000 4450 50  0001 C CNN
F 3 "" H 3000 4450 50  0001 C CNN
	1    3000 4450
	1    0    0    -1  
$EndComp
$Comp
L power:GND #PWR02
U 1 1 60E9B9B0
P 3800 6075
F 0 "#PWR02" H 3800 5825 50  0001 C CNN
F 1 "GND" H 3805 5902 50  0000 C CNN
F 2 "" H 3800 6075 50  0001 C CNN
F 3 "" H 3800 6075 50  0001 C CNN
	1    3800 6075
	1    0    0    -1  
$EndComp
Wire Wire Line
	3800 6075 3800 5975
Wire Wire Line
	3800 5975 4125 5975
Wire Wire Line
	4125 5975 4125 5900
Connection ~ 3800 5975
Wire Wire Line
	3800 5975 3800 5900
Wire Wire Line
	4125 5975 4450 5975
Wire Wire Line
	4450 5975 4450 5900
Connection ~ 4125 5975
Wire Wire Line
	4450 5975 4775 5975
Wire Wire Line
	4775 5975 4775 5900
Connection ~ 4450 5975
Wire Wire Line
	3000 4450 3000 4250
Connection ~ 3000 4250
$Comp
L Connector_Generic:Conn_01x02 J3
U 1 1 60EA5DA7
P 7525 2925
F 0 "J3" H 7605 2871 50  0000 L CNN
F 1 "Conn_01x02" V 7398 2737 50  0001 R CNN
F 2 "Connector_PinHeader_2.54mm:PinHeader_1x02_P2.54mm_Vertical" H 7525 2925 50  0001 C CNN
F 3 "~" H 7525 2925 50  0001 C CNN
	1    7525 2925
	1    0    0    -1  
$EndComp
Wire Wire Line
	6775 2925 6775 2650
Connection ~ 6775 2650
Wire Wire Line
	7325 3025 7225 3025
Wire Wire Line
	7225 3025 7225 4250
$Comp
L Device:C C2
U 1 1 60EB6029
P 6775 3200
F 0 "C2" H 6890 3246 50  0000 L CNN
F 1 "100n" H 6890 3155 50  0000 L CNN
F 2 "Capacitor_SMD:C_0805_2012Metric_Pad1.15x1.40mm_HandSolder" H 6813 3050 50  0001 C CNN
F 3 "~" H 6775 3200 50  0001 C CNN
	1    6775 3200
	1    0    0    -1  
$EndComp
Connection ~ 7225 4250
Wire Wire Line
	6500 4250 6775 4250
Wire Wire Line
	6775 3050 6775 2925
Connection ~ 6775 2925
Wire Wire Line
	6775 2925 7325 2925
Wire Wire Line
	6775 3350 6775 4250
Connection ~ 6775 4250
Wire Wire Line
	6775 4250 7225 4250
$Comp
L Device:LED D1
U 1 1 60E81699
P 4500 3800
F 0 "D1" V 4555 4025 50  0000 R CNN
F 1 "LED" V 4420 4040 50  0000 R CNN
F 2 "LED_SMD:LED_0805_2012Metric_Pad1.15x1.40mm_HandSolder" H 4500 3800 50  0001 C CNN
F 3 "~" H 4500 3800 50  0001 C CNN
	1    4500 3800
	0    -1   -1   0   
$EndComp
Wire Wire Line
	4500 4250 4750 4250
Connection ~ 4500 4250
Wire Wire Line
	4500 3950 4500 4250
Wire Wire Line
	4500 3650 4500 3200
Wire Wire Line
	4500 2650 5275 2650
Wire Wire Line
	4250 2650 4500 2650
Connection ~ 4500 2650
Wire Wire Line
	4500 2650 4500 2900
$Comp
L Device:L L4
U 1 1 60F157BB
P 7650 2430
F 0 "L4" V 7755 2520 50  0000 C CNN
F 1 "10uH" V 7750 2330 50  0000 C CNN
F 2 "Inductor_SMD:L_0805_2012Metric_Pad1.15x1.40mm_HandSolder" H 7650 2430 50  0001 C CNN
F 3 "~" H 7650 2430 50  0001 C CNN
	1    7650 2430
	1    0    0    -1  
$EndComp
Wire Wire Line
	6775 2650 5975 2650
$Comp
L Device:C C3
U 1 1 61004649
P 5655 1600
F 0 "C3" V 5855 1700 50  0000 C CNN
F 1 "10pF" V 5855 1500 50  0000 C CNN
F 2 "Capacitor_SMD:C_0805_2012Metric_Pad1.15x1.40mm_HandSolder" H 5693 1450 50  0001 C CNN
F 3 "~" H 5655 1600 50  0001 C CNN
	1    5655 1600
	0    -1   -1   0   
$EndComp
Wire Wire Line
	5505 1600 5220 1600
Wire Wire Line
	5220 1600 5220 2000
Connection ~ 5220 2000
Wire Wire Line
	5220 2000 5500 2000
Wire Wire Line
	5805 1600 6070 1600
Wire Wire Line
	6070 1600 6070 2000
Connection ~ 6070 2000
Wire Wire Line
	6070 2000 7650 2000
Wire Wire Line
	3600 2000 3600 2170
Wire Wire Line
	3925 2650 4150 2650
$Comp
L Device:L L3
U 1 1 60F122E1
P 3600 2320
F 0 "L3" V 3705 2410 50  0000 C CNN
F 1 "10uH" V 3700 2220 50  0000 C CNN
F 2 "Inductor_SMD:L_0805_2012Metric_Pad1.15x1.40mm_HandSolder" H 3600 2320 50  0001 C CNN
F 3 "~" H 3600 2320 50  0001 C CNN
	1    3600 2320
	-1   0    0    1   
$EndComp
Wire Wire Line
	3600 2470 3600 2650
Wire Wire Line
	7650 2580 7650 2650
Wire Wire Line
	7225 4250 7820 4250
Connection ~ 7820 4250
$Comp
L Connector_Generic:Conn_01x02 J5
U 1 1 6100BEB2
P 8060 2120
F 0 "J5" H 8140 2066 50  0000 L CNN
F 1 "Conn_01x02" V 7933 1932 50  0001 R CNN
F 2 "Connector_PinHeader_2.54mm:PinHeader_1x02_P2.54mm_Vertical" H 8060 2120 50  0001 C CNN
F 3 "~" H 8060 2120 50  0001 C CNN
	1    8060 2120
	1    0    0    -1  
$EndComp
Wire Wire Line
	7820 4250 8500 4250
Wire Wire Line
	8500 4250 9200 4250
Connection ~ 8500 4250
Connection ~ 8500 2000
Wire Wire Line
	8500 2000 9000 2000
Wire Wire Line
	7650 2000 8500 2000
Wire Wire Line
	3000 4250 4500 4250
Wire Wire Line
	3200 2000 3600 2000
NoConn ~ 8680 3000
Wire Wire Line
	8500 3300 8500 4250
Wire Wire Line
	8500 2700 8500 2000
$Comp
L my_libary:PESD5V0X1BT D2
U 1 1 60E49BF3
P 8400 2350
F 0 "D2" V 9004 2372 50  0000 R CNN
F 1 "PESD5V0X1BT" V 9095 2372 50  0000 R CNN
F 2 "Package_TO_SOT_SMD:SOT-23" H 8990 2300 50  0001 C CNN
F 3 "" H 8400 2350 50  0001 C CNN
	1    8400 2350
	0    1    1    0   
$EndComp
Wire Wire Line
	7820 2220 7860 2220
Wire Wire Line
	7820 2220 7820 4250
Wire Wire Line
	7860 2120 7650 2120
Wire Wire Line
	7650 2000 7650 2120
Wire Wire Line
	7650 2120 7650 2280
Connection ~ 7650 2120
$EndSCHEMATC
