G04 #@! TF.GenerationSoftware,KiCad,Pcbnew,(5.1.5)-3*
G04 #@! TF.CreationDate,2021-08-10T22:26:19+02:00*
G04 #@! TF.ProjectId,sma_bias_tester,736d615f-6269-4617-935f-746573746572,rev?*
G04 #@! TF.SameCoordinates,Original*
G04 #@! TF.FileFunction,Paste,Top*
G04 #@! TF.FilePolarity,Positive*
%FSLAX46Y46*%
G04 Gerber Fmt 4.6, Leading zero omitted, Abs format (unit mm)*
G04 Created by KiCad (PCBNEW (5.1.5)-3) date 2021-08-10 22:26:19*
%MOMM*%
%LPD*%
G04 APERTURE LIST*
%ADD10R,3.600000X1.270000*%
%ADD11R,4.200000X1.350000*%
%ADD12C,0.100000*%
%ADD13R,1.500000X2.200000*%
%ADD14R,0.900000X0.800000*%
G04 APERTURE END LIST*
D10*
X189734800Y-68224400D03*
D11*
X189534800Y-65399400D03*
X189534800Y-71049400D03*
D10*
X123853600Y-68173600D03*
D11*
X124053600Y-70998600D03*
X124053600Y-65348600D03*
D12*
G36*
X155788505Y-66484204D02*
G01*
X155812773Y-66487804D01*
X155836572Y-66493765D01*
X155859671Y-66502030D01*
X155881850Y-66512520D01*
X155902893Y-66525132D01*
X155922599Y-66539747D01*
X155940777Y-66556223D01*
X155957253Y-66574401D01*
X155971868Y-66594107D01*
X155984480Y-66615150D01*
X155994970Y-66637329D01*
X156003235Y-66660428D01*
X156009196Y-66684227D01*
X156012796Y-66708495D01*
X156014000Y-66732999D01*
X156014000Y-67633001D01*
X156012796Y-67657505D01*
X156009196Y-67681773D01*
X156003235Y-67705572D01*
X155994970Y-67728671D01*
X155984480Y-67750850D01*
X155971868Y-67771893D01*
X155957253Y-67791599D01*
X155940777Y-67809777D01*
X155922599Y-67826253D01*
X155902893Y-67840868D01*
X155881850Y-67853480D01*
X155859671Y-67863970D01*
X155836572Y-67872235D01*
X155812773Y-67878196D01*
X155788505Y-67881796D01*
X155764001Y-67883000D01*
X155113999Y-67883000D01*
X155089495Y-67881796D01*
X155065227Y-67878196D01*
X155041428Y-67872235D01*
X155018329Y-67863970D01*
X154996150Y-67853480D01*
X154975107Y-67840868D01*
X154955401Y-67826253D01*
X154937223Y-67809777D01*
X154920747Y-67791599D01*
X154906132Y-67771893D01*
X154893520Y-67750850D01*
X154883030Y-67728671D01*
X154874765Y-67705572D01*
X154868804Y-67681773D01*
X154865204Y-67657505D01*
X154864000Y-67633001D01*
X154864000Y-66732999D01*
X154865204Y-66708495D01*
X154868804Y-66684227D01*
X154874765Y-66660428D01*
X154883030Y-66637329D01*
X154893520Y-66615150D01*
X154906132Y-66594107D01*
X154920747Y-66574401D01*
X154937223Y-66556223D01*
X154955401Y-66539747D01*
X154975107Y-66525132D01*
X154996150Y-66512520D01*
X155018329Y-66502030D01*
X155041428Y-66493765D01*
X155065227Y-66487804D01*
X155089495Y-66484204D01*
X155113999Y-66483000D01*
X155764001Y-66483000D01*
X155788505Y-66484204D01*
G37*
G36*
X157838505Y-66484204D02*
G01*
X157862773Y-66487804D01*
X157886572Y-66493765D01*
X157909671Y-66502030D01*
X157931850Y-66512520D01*
X157952893Y-66525132D01*
X157972599Y-66539747D01*
X157990777Y-66556223D01*
X158007253Y-66574401D01*
X158021868Y-66594107D01*
X158034480Y-66615150D01*
X158044970Y-66637329D01*
X158053235Y-66660428D01*
X158059196Y-66684227D01*
X158062796Y-66708495D01*
X158064000Y-66732999D01*
X158064000Y-67633001D01*
X158062796Y-67657505D01*
X158059196Y-67681773D01*
X158053235Y-67705572D01*
X158044970Y-67728671D01*
X158034480Y-67750850D01*
X158021868Y-67771893D01*
X158007253Y-67791599D01*
X157990777Y-67809777D01*
X157972599Y-67826253D01*
X157952893Y-67840868D01*
X157931850Y-67853480D01*
X157909671Y-67863970D01*
X157886572Y-67872235D01*
X157862773Y-67878196D01*
X157838505Y-67881796D01*
X157814001Y-67883000D01*
X157163999Y-67883000D01*
X157139495Y-67881796D01*
X157115227Y-67878196D01*
X157091428Y-67872235D01*
X157068329Y-67863970D01*
X157046150Y-67853480D01*
X157025107Y-67840868D01*
X157005401Y-67826253D01*
X156987223Y-67809777D01*
X156970747Y-67791599D01*
X156956132Y-67771893D01*
X156943520Y-67750850D01*
X156933030Y-67728671D01*
X156924765Y-67705572D01*
X156918804Y-67681773D01*
X156915204Y-67657505D01*
X156914000Y-67633001D01*
X156914000Y-66732999D01*
X156915204Y-66708495D01*
X156918804Y-66684227D01*
X156924765Y-66660428D01*
X156933030Y-66637329D01*
X156943520Y-66615150D01*
X156956132Y-66594107D01*
X156970747Y-66574401D01*
X156987223Y-66556223D01*
X157005401Y-66539747D01*
X157025107Y-66525132D01*
X157046150Y-66512520D01*
X157068329Y-66502030D01*
X157091428Y-66493765D01*
X157115227Y-66487804D01*
X157139495Y-66484204D01*
X157163999Y-66483000D01*
X157814001Y-66483000D01*
X157838505Y-66484204D01*
G37*
D13*
X178663200Y-73761600D03*
X172263200Y-73761600D03*
D12*
G36*
X182135305Y-69996404D02*
G01*
X182159573Y-70000004D01*
X182183372Y-70005965D01*
X182206471Y-70014230D01*
X182228650Y-70024720D01*
X182249693Y-70037332D01*
X182269399Y-70051947D01*
X182287577Y-70068423D01*
X182304053Y-70086601D01*
X182318668Y-70106307D01*
X182331280Y-70127350D01*
X182341770Y-70149529D01*
X182350035Y-70172628D01*
X182355996Y-70196427D01*
X182359596Y-70220695D01*
X182360800Y-70245199D01*
X182360800Y-70895201D01*
X182359596Y-70919705D01*
X182355996Y-70943973D01*
X182350035Y-70967772D01*
X182341770Y-70990871D01*
X182331280Y-71013050D01*
X182318668Y-71034093D01*
X182304053Y-71053799D01*
X182287577Y-71071977D01*
X182269399Y-71088453D01*
X182249693Y-71103068D01*
X182228650Y-71115680D01*
X182206471Y-71126170D01*
X182183372Y-71134435D01*
X182159573Y-71140396D01*
X182135305Y-71143996D01*
X182110801Y-71145200D01*
X181210799Y-71145200D01*
X181186295Y-71143996D01*
X181162027Y-71140396D01*
X181138228Y-71134435D01*
X181115129Y-71126170D01*
X181092950Y-71115680D01*
X181071907Y-71103068D01*
X181052201Y-71088453D01*
X181034023Y-71071977D01*
X181017547Y-71053799D01*
X181002932Y-71034093D01*
X180990320Y-71013050D01*
X180979830Y-70990871D01*
X180971565Y-70967772D01*
X180965604Y-70943973D01*
X180962004Y-70919705D01*
X180960800Y-70895201D01*
X180960800Y-70245199D01*
X180962004Y-70220695D01*
X180965604Y-70196427D01*
X180971565Y-70172628D01*
X180979830Y-70149529D01*
X180990320Y-70127350D01*
X181002932Y-70106307D01*
X181017547Y-70086601D01*
X181034023Y-70068423D01*
X181052201Y-70051947D01*
X181071907Y-70037332D01*
X181092950Y-70024720D01*
X181115129Y-70014230D01*
X181138228Y-70005965D01*
X181162027Y-70000004D01*
X181186295Y-69996404D01*
X181210799Y-69995200D01*
X182110801Y-69995200D01*
X182135305Y-69996404D01*
G37*
G36*
X182135305Y-67946404D02*
G01*
X182159573Y-67950004D01*
X182183372Y-67955965D01*
X182206471Y-67964230D01*
X182228650Y-67974720D01*
X182249693Y-67987332D01*
X182269399Y-68001947D01*
X182287577Y-68018423D01*
X182304053Y-68036601D01*
X182318668Y-68056307D01*
X182331280Y-68077350D01*
X182341770Y-68099529D01*
X182350035Y-68122628D01*
X182355996Y-68146427D01*
X182359596Y-68170695D01*
X182360800Y-68195199D01*
X182360800Y-68845201D01*
X182359596Y-68869705D01*
X182355996Y-68893973D01*
X182350035Y-68917772D01*
X182341770Y-68940871D01*
X182331280Y-68963050D01*
X182318668Y-68984093D01*
X182304053Y-69003799D01*
X182287577Y-69021977D01*
X182269399Y-69038453D01*
X182249693Y-69053068D01*
X182228650Y-69065680D01*
X182206471Y-69076170D01*
X182183372Y-69084435D01*
X182159573Y-69090396D01*
X182135305Y-69093996D01*
X182110801Y-69095200D01*
X181210799Y-69095200D01*
X181186295Y-69093996D01*
X181162027Y-69090396D01*
X181138228Y-69084435D01*
X181115129Y-69076170D01*
X181092950Y-69065680D01*
X181071907Y-69053068D01*
X181052201Y-69038453D01*
X181034023Y-69021977D01*
X181017547Y-69003799D01*
X181002932Y-68984093D01*
X180990320Y-68963050D01*
X180979830Y-68940871D01*
X180971565Y-68917772D01*
X180965604Y-68893973D01*
X180962004Y-68869705D01*
X180960800Y-68845201D01*
X180960800Y-68195199D01*
X180962004Y-68170695D01*
X180965604Y-68146427D01*
X180971565Y-68122628D01*
X180979830Y-68099529D01*
X180990320Y-68077350D01*
X181002932Y-68056307D01*
X181017547Y-68036601D01*
X181034023Y-68018423D01*
X181052201Y-68001947D01*
X181071907Y-67987332D01*
X181092950Y-67974720D01*
X181115129Y-67964230D01*
X181138228Y-67955965D01*
X181162027Y-67950004D01*
X181186295Y-67946404D01*
X181210799Y-67945200D01*
X182110801Y-67945200D01*
X182135305Y-67946404D01*
G37*
G36*
X131741705Y-67997204D02*
G01*
X131765973Y-68000804D01*
X131789772Y-68006765D01*
X131812871Y-68015030D01*
X131835050Y-68025520D01*
X131856093Y-68038132D01*
X131875799Y-68052747D01*
X131893977Y-68069223D01*
X131910453Y-68087401D01*
X131925068Y-68107107D01*
X131937680Y-68128150D01*
X131948170Y-68150329D01*
X131956435Y-68173428D01*
X131962396Y-68197227D01*
X131965996Y-68221495D01*
X131967200Y-68245999D01*
X131967200Y-68896001D01*
X131965996Y-68920505D01*
X131962396Y-68944773D01*
X131956435Y-68968572D01*
X131948170Y-68991671D01*
X131937680Y-69013850D01*
X131925068Y-69034893D01*
X131910453Y-69054599D01*
X131893977Y-69072777D01*
X131875799Y-69089253D01*
X131856093Y-69103868D01*
X131835050Y-69116480D01*
X131812871Y-69126970D01*
X131789772Y-69135235D01*
X131765973Y-69141196D01*
X131741705Y-69144796D01*
X131717201Y-69146000D01*
X130817199Y-69146000D01*
X130792695Y-69144796D01*
X130768427Y-69141196D01*
X130744628Y-69135235D01*
X130721529Y-69126970D01*
X130699350Y-69116480D01*
X130678307Y-69103868D01*
X130658601Y-69089253D01*
X130640423Y-69072777D01*
X130623947Y-69054599D01*
X130609332Y-69034893D01*
X130596720Y-69013850D01*
X130586230Y-68991671D01*
X130577965Y-68968572D01*
X130572004Y-68944773D01*
X130568404Y-68920505D01*
X130567200Y-68896001D01*
X130567200Y-68245999D01*
X130568404Y-68221495D01*
X130572004Y-68197227D01*
X130577965Y-68173428D01*
X130586230Y-68150329D01*
X130596720Y-68128150D01*
X130609332Y-68107107D01*
X130623947Y-68087401D01*
X130640423Y-68069223D01*
X130658601Y-68052747D01*
X130678307Y-68038132D01*
X130699350Y-68025520D01*
X130721529Y-68015030D01*
X130744628Y-68006765D01*
X130768427Y-68000804D01*
X130792695Y-67997204D01*
X130817199Y-67996000D01*
X131717201Y-67996000D01*
X131741705Y-67997204D01*
G37*
G36*
X131741705Y-70047204D02*
G01*
X131765973Y-70050804D01*
X131789772Y-70056765D01*
X131812871Y-70065030D01*
X131835050Y-70075520D01*
X131856093Y-70088132D01*
X131875799Y-70102747D01*
X131893977Y-70119223D01*
X131910453Y-70137401D01*
X131925068Y-70157107D01*
X131937680Y-70178150D01*
X131948170Y-70200329D01*
X131956435Y-70223428D01*
X131962396Y-70247227D01*
X131965996Y-70271495D01*
X131967200Y-70295999D01*
X131967200Y-70946001D01*
X131965996Y-70970505D01*
X131962396Y-70994773D01*
X131956435Y-71018572D01*
X131948170Y-71041671D01*
X131937680Y-71063850D01*
X131925068Y-71084893D01*
X131910453Y-71104599D01*
X131893977Y-71122777D01*
X131875799Y-71139253D01*
X131856093Y-71153868D01*
X131835050Y-71166480D01*
X131812871Y-71176970D01*
X131789772Y-71185235D01*
X131765973Y-71191196D01*
X131741705Y-71194796D01*
X131717201Y-71196000D01*
X130817199Y-71196000D01*
X130792695Y-71194796D01*
X130768427Y-71191196D01*
X130744628Y-71185235D01*
X130721529Y-71176970D01*
X130699350Y-71166480D01*
X130678307Y-71153868D01*
X130658601Y-71139253D01*
X130640423Y-71122777D01*
X130623947Y-71104599D01*
X130609332Y-71084893D01*
X130596720Y-71063850D01*
X130586230Y-71041671D01*
X130577965Y-71018572D01*
X130572004Y-70994773D01*
X130568404Y-70970505D01*
X130567200Y-70946001D01*
X130567200Y-70295999D01*
X130568404Y-70271495D01*
X130572004Y-70247227D01*
X130577965Y-70223428D01*
X130586230Y-70200329D01*
X130596720Y-70178150D01*
X130609332Y-70157107D01*
X130623947Y-70137401D01*
X130640423Y-70119223D01*
X130658601Y-70102747D01*
X130678307Y-70088132D01*
X130699350Y-70075520D01*
X130721529Y-70065030D01*
X130744628Y-70056765D01*
X130768427Y-70050804D01*
X130792695Y-70047204D01*
X130817199Y-70046000D01*
X131717201Y-70046000D01*
X131741705Y-70047204D01*
G37*
G36*
X142834505Y-74485204D02*
G01*
X142858773Y-74488804D01*
X142882572Y-74494765D01*
X142905671Y-74503030D01*
X142927850Y-74513520D01*
X142948893Y-74526132D01*
X142968599Y-74540747D01*
X142986777Y-74557223D01*
X143003253Y-74575401D01*
X143017868Y-74595107D01*
X143030480Y-74616150D01*
X143040970Y-74638329D01*
X143049235Y-74661428D01*
X143055196Y-74685227D01*
X143058796Y-74709495D01*
X143060000Y-74733999D01*
X143060000Y-75634001D01*
X143058796Y-75658505D01*
X143055196Y-75682773D01*
X143049235Y-75706572D01*
X143040970Y-75729671D01*
X143030480Y-75751850D01*
X143017868Y-75772893D01*
X143003253Y-75792599D01*
X142986777Y-75810777D01*
X142968599Y-75827253D01*
X142948893Y-75841868D01*
X142927850Y-75854480D01*
X142905671Y-75864970D01*
X142882572Y-75873235D01*
X142858773Y-75879196D01*
X142834505Y-75882796D01*
X142810001Y-75884000D01*
X142159999Y-75884000D01*
X142135495Y-75882796D01*
X142111227Y-75879196D01*
X142087428Y-75873235D01*
X142064329Y-75864970D01*
X142042150Y-75854480D01*
X142021107Y-75841868D01*
X142001401Y-75827253D01*
X141983223Y-75810777D01*
X141966747Y-75792599D01*
X141952132Y-75772893D01*
X141939520Y-75751850D01*
X141929030Y-75729671D01*
X141920765Y-75706572D01*
X141914804Y-75682773D01*
X141911204Y-75658505D01*
X141910000Y-75634001D01*
X141910000Y-74733999D01*
X141911204Y-74709495D01*
X141914804Y-74685227D01*
X141920765Y-74661428D01*
X141929030Y-74638329D01*
X141939520Y-74616150D01*
X141952132Y-74595107D01*
X141966747Y-74575401D01*
X141983223Y-74557223D01*
X142001401Y-74540747D01*
X142021107Y-74526132D01*
X142042150Y-74513520D01*
X142064329Y-74503030D01*
X142087428Y-74494765D01*
X142111227Y-74488804D01*
X142135495Y-74485204D01*
X142159999Y-74484000D01*
X142810001Y-74484000D01*
X142834505Y-74485204D01*
G37*
G36*
X144884505Y-74485204D02*
G01*
X144908773Y-74488804D01*
X144932572Y-74494765D01*
X144955671Y-74503030D01*
X144977850Y-74513520D01*
X144998893Y-74526132D01*
X145018599Y-74540747D01*
X145036777Y-74557223D01*
X145053253Y-74575401D01*
X145067868Y-74595107D01*
X145080480Y-74616150D01*
X145090970Y-74638329D01*
X145099235Y-74661428D01*
X145105196Y-74685227D01*
X145108796Y-74709495D01*
X145110000Y-74733999D01*
X145110000Y-75634001D01*
X145108796Y-75658505D01*
X145105196Y-75682773D01*
X145099235Y-75706572D01*
X145090970Y-75729671D01*
X145080480Y-75751850D01*
X145067868Y-75772893D01*
X145053253Y-75792599D01*
X145036777Y-75810777D01*
X145018599Y-75827253D01*
X144998893Y-75841868D01*
X144977850Y-75854480D01*
X144955671Y-75864970D01*
X144932572Y-75873235D01*
X144908773Y-75879196D01*
X144884505Y-75882796D01*
X144860001Y-75884000D01*
X144209999Y-75884000D01*
X144185495Y-75882796D01*
X144161227Y-75879196D01*
X144137428Y-75873235D01*
X144114329Y-75864970D01*
X144092150Y-75854480D01*
X144071107Y-75841868D01*
X144051401Y-75827253D01*
X144033223Y-75810777D01*
X144016747Y-75792599D01*
X144002132Y-75772893D01*
X143989520Y-75751850D01*
X143979030Y-75729671D01*
X143970765Y-75706572D01*
X143964804Y-75682773D01*
X143961204Y-75658505D01*
X143960000Y-75634001D01*
X143960000Y-74733999D01*
X143961204Y-74709495D01*
X143964804Y-74685227D01*
X143970765Y-74661428D01*
X143979030Y-74638329D01*
X143989520Y-74616150D01*
X144002132Y-74595107D01*
X144016747Y-74575401D01*
X144033223Y-74557223D01*
X144051401Y-74540747D01*
X144071107Y-74526132D01*
X144092150Y-74513520D01*
X144114329Y-74503030D01*
X144137428Y-74494765D01*
X144161227Y-74488804D01*
X144185495Y-74485204D01*
X144209999Y-74484000D01*
X144860001Y-74484000D01*
X144884505Y-74485204D01*
G37*
D13*
X140309200Y-74117200D03*
X133909200Y-74117200D03*
D14*
X180711600Y-64414400D03*
X182711600Y-63464400D03*
X182711600Y-65364400D03*
D12*
G36*
X142834505Y-71818204D02*
G01*
X142858773Y-71821804D01*
X142882572Y-71827765D01*
X142905671Y-71836030D01*
X142927850Y-71846520D01*
X142948893Y-71859132D01*
X142968599Y-71873747D01*
X142986777Y-71890223D01*
X143003253Y-71908401D01*
X143017868Y-71928107D01*
X143030480Y-71949150D01*
X143040970Y-71971329D01*
X143049235Y-71994428D01*
X143055196Y-72018227D01*
X143058796Y-72042495D01*
X143060000Y-72066999D01*
X143060000Y-72967001D01*
X143058796Y-72991505D01*
X143055196Y-73015773D01*
X143049235Y-73039572D01*
X143040970Y-73062671D01*
X143030480Y-73084850D01*
X143017868Y-73105893D01*
X143003253Y-73125599D01*
X142986777Y-73143777D01*
X142968599Y-73160253D01*
X142948893Y-73174868D01*
X142927850Y-73187480D01*
X142905671Y-73197970D01*
X142882572Y-73206235D01*
X142858773Y-73212196D01*
X142834505Y-73215796D01*
X142810001Y-73217000D01*
X142159999Y-73217000D01*
X142135495Y-73215796D01*
X142111227Y-73212196D01*
X142087428Y-73206235D01*
X142064329Y-73197970D01*
X142042150Y-73187480D01*
X142021107Y-73174868D01*
X142001401Y-73160253D01*
X141983223Y-73143777D01*
X141966747Y-73125599D01*
X141952132Y-73105893D01*
X141939520Y-73084850D01*
X141929030Y-73062671D01*
X141920765Y-73039572D01*
X141914804Y-73015773D01*
X141911204Y-72991505D01*
X141910000Y-72967001D01*
X141910000Y-72066999D01*
X141911204Y-72042495D01*
X141914804Y-72018227D01*
X141920765Y-71994428D01*
X141929030Y-71971329D01*
X141939520Y-71949150D01*
X141952132Y-71928107D01*
X141966747Y-71908401D01*
X141983223Y-71890223D01*
X142001401Y-71873747D01*
X142021107Y-71859132D01*
X142042150Y-71846520D01*
X142064329Y-71836030D01*
X142087428Y-71827765D01*
X142111227Y-71821804D01*
X142135495Y-71818204D01*
X142159999Y-71817000D01*
X142810001Y-71817000D01*
X142834505Y-71818204D01*
G37*
G36*
X144884505Y-71818204D02*
G01*
X144908773Y-71821804D01*
X144932572Y-71827765D01*
X144955671Y-71836030D01*
X144977850Y-71846520D01*
X144998893Y-71859132D01*
X145018599Y-71873747D01*
X145036777Y-71890223D01*
X145053253Y-71908401D01*
X145067868Y-71928107D01*
X145080480Y-71949150D01*
X145090970Y-71971329D01*
X145099235Y-71994428D01*
X145105196Y-72018227D01*
X145108796Y-72042495D01*
X145110000Y-72066999D01*
X145110000Y-72967001D01*
X145108796Y-72991505D01*
X145105196Y-73015773D01*
X145099235Y-73039572D01*
X145090970Y-73062671D01*
X145080480Y-73084850D01*
X145067868Y-73105893D01*
X145053253Y-73125599D01*
X145036777Y-73143777D01*
X145018599Y-73160253D01*
X144998893Y-73174868D01*
X144977850Y-73187480D01*
X144955671Y-73197970D01*
X144932572Y-73206235D01*
X144908773Y-73212196D01*
X144884505Y-73215796D01*
X144860001Y-73217000D01*
X144209999Y-73217000D01*
X144185495Y-73215796D01*
X144161227Y-73212196D01*
X144137428Y-73206235D01*
X144114329Y-73197970D01*
X144092150Y-73187480D01*
X144071107Y-73174868D01*
X144051401Y-73160253D01*
X144033223Y-73143777D01*
X144016747Y-73125599D01*
X144002132Y-73105893D01*
X143989520Y-73084850D01*
X143979030Y-73062671D01*
X143970765Y-73039572D01*
X143964804Y-73015773D01*
X143961204Y-72991505D01*
X143960000Y-72967001D01*
X143960000Y-72066999D01*
X143961204Y-72042495D01*
X143964804Y-72018227D01*
X143970765Y-71994428D01*
X143979030Y-71971329D01*
X143989520Y-71949150D01*
X144002132Y-71928107D01*
X144016747Y-71908401D01*
X144033223Y-71890223D01*
X144051401Y-71873747D01*
X144071107Y-71859132D01*
X144092150Y-71846520D01*
X144114329Y-71836030D01*
X144137428Y-71827765D01*
X144161227Y-71821804D01*
X144185495Y-71818204D01*
X144209999Y-71817000D01*
X144860001Y-71817000D01*
X144884505Y-71818204D01*
G37*
G36*
X172737305Y-78665204D02*
G01*
X172761573Y-78668804D01*
X172785372Y-78674765D01*
X172808471Y-78683030D01*
X172830650Y-78693520D01*
X172851693Y-78706132D01*
X172871399Y-78720747D01*
X172889577Y-78737223D01*
X172906053Y-78755401D01*
X172920668Y-78775107D01*
X172933280Y-78796150D01*
X172943770Y-78818329D01*
X172952035Y-78841428D01*
X172957996Y-78865227D01*
X172961596Y-78889495D01*
X172962800Y-78913999D01*
X172962800Y-79564001D01*
X172961596Y-79588505D01*
X172957996Y-79612773D01*
X172952035Y-79636572D01*
X172943770Y-79659671D01*
X172933280Y-79681850D01*
X172920668Y-79702893D01*
X172906053Y-79722599D01*
X172889577Y-79740777D01*
X172871399Y-79757253D01*
X172851693Y-79771868D01*
X172830650Y-79784480D01*
X172808471Y-79794970D01*
X172785372Y-79803235D01*
X172761573Y-79809196D01*
X172737305Y-79812796D01*
X172712801Y-79814000D01*
X171812799Y-79814000D01*
X171788295Y-79812796D01*
X171764027Y-79809196D01*
X171740228Y-79803235D01*
X171717129Y-79794970D01*
X171694950Y-79784480D01*
X171673907Y-79771868D01*
X171654201Y-79757253D01*
X171636023Y-79740777D01*
X171619547Y-79722599D01*
X171604932Y-79702893D01*
X171592320Y-79681850D01*
X171581830Y-79659671D01*
X171573565Y-79636572D01*
X171567604Y-79612773D01*
X171564004Y-79588505D01*
X171562800Y-79564001D01*
X171562800Y-78913999D01*
X171564004Y-78889495D01*
X171567604Y-78865227D01*
X171573565Y-78841428D01*
X171581830Y-78818329D01*
X171592320Y-78796150D01*
X171604932Y-78775107D01*
X171619547Y-78755401D01*
X171636023Y-78737223D01*
X171654201Y-78720747D01*
X171673907Y-78706132D01*
X171694950Y-78693520D01*
X171717129Y-78683030D01*
X171740228Y-78674765D01*
X171764027Y-78668804D01*
X171788295Y-78665204D01*
X171812799Y-78664000D01*
X172712801Y-78664000D01*
X172737305Y-78665204D01*
G37*
G36*
X172737305Y-80715204D02*
G01*
X172761573Y-80718804D01*
X172785372Y-80724765D01*
X172808471Y-80733030D01*
X172830650Y-80743520D01*
X172851693Y-80756132D01*
X172871399Y-80770747D01*
X172889577Y-80787223D01*
X172906053Y-80805401D01*
X172920668Y-80825107D01*
X172933280Y-80846150D01*
X172943770Y-80868329D01*
X172952035Y-80891428D01*
X172957996Y-80915227D01*
X172961596Y-80939495D01*
X172962800Y-80963999D01*
X172962800Y-81614001D01*
X172961596Y-81638505D01*
X172957996Y-81662773D01*
X172952035Y-81686572D01*
X172943770Y-81709671D01*
X172933280Y-81731850D01*
X172920668Y-81752893D01*
X172906053Y-81772599D01*
X172889577Y-81790777D01*
X172871399Y-81807253D01*
X172851693Y-81821868D01*
X172830650Y-81834480D01*
X172808471Y-81844970D01*
X172785372Y-81853235D01*
X172761573Y-81859196D01*
X172737305Y-81862796D01*
X172712801Y-81864000D01*
X171812799Y-81864000D01*
X171788295Y-81862796D01*
X171764027Y-81859196D01*
X171740228Y-81853235D01*
X171717129Y-81844970D01*
X171694950Y-81834480D01*
X171673907Y-81821868D01*
X171654201Y-81807253D01*
X171636023Y-81790777D01*
X171619547Y-81772599D01*
X171604932Y-81752893D01*
X171592320Y-81731850D01*
X171581830Y-81709671D01*
X171573565Y-81686572D01*
X171567604Y-81662773D01*
X171564004Y-81638505D01*
X171562800Y-81614001D01*
X171562800Y-80963999D01*
X171564004Y-80939495D01*
X171567604Y-80915227D01*
X171573565Y-80891428D01*
X171581830Y-80868329D01*
X171592320Y-80846150D01*
X171604932Y-80825107D01*
X171619547Y-80805401D01*
X171636023Y-80787223D01*
X171654201Y-80770747D01*
X171673907Y-80756132D01*
X171694950Y-80743520D01*
X171717129Y-80733030D01*
X171740228Y-80724765D01*
X171764027Y-80718804D01*
X171788295Y-80715204D01*
X171812799Y-80714000D01*
X172712801Y-80714000D01*
X172737305Y-80715204D01*
G37*
G36*
X157838505Y-68516204D02*
G01*
X157862773Y-68519804D01*
X157886572Y-68525765D01*
X157909671Y-68534030D01*
X157931850Y-68544520D01*
X157952893Y-68557132D01*
X157972599Y-68571747D01*
X157990777Y-68588223D01*
X158007253Y-68606401D01*
X158021868Y-68626107D01*
X158034480Y-68647150D01*
X158044970Y-68669329D01*
X158053235Y-68692428D01*
X158059196Y-68716227D01*
X158062796Y-68740495D01*
X158064000Y-68764999D01*
X158064000Y-69665001D01*
X158062796Y-69689505D01*
X158059196Y-69713773D01*
X158053235Y-69737572D01*
X158044970Y-69760671D01*
X158034480Y-69782850D01*
X158021868Y-69803893D01*
X158007253Y-69823599D01*
X157990777Y-69841777D01*
X157972599Y-69858253D01*
X157952893Y-69872868D01*
X157931850Y-69885480D01*
X157909671Y-69895970D01*
X157886572Y-69904235D01*
X157862773Y-69910196D01*
X157838505Y-69913796D01*
X157814001Y-69915000D01*
X157163999Y-69915000D01*
X157139495Y-69913796D01*
X157115227Y-69910196D01*
X157091428Y-69904235D01*
X157068329Y-69895970D01*
X157046150Y-69885480D01*
X157025107Y-69872868D01*
X157005401Y-69858253D01*
X156987223Y-69841777D01*
X156970747Y-69823599D01*
X156956132Y-69803893D01*
X156943520Y-69782850D01*
X156933030Y-69760671D01*
X156924765Y-69737572D01*
X156918804Y-69713773D01*
X156915204Y-69689505D01*
X156914000Y-69665001D01*
X156914000Y-68764999D01*
X156915204Y-68740495D01*
X156918804Y-68716227D01*
X156924765Y-68692428D01*
X156933030Y-68669329D01*
X156943520Y-68647150D01*
X156956132Y-68626107D01*
X156970747Y-68606401D01*
X156987223Y-68588223D01*
X157005401Y-68571747D01*
X157025107Y-68557132D01*
X157046150Y-68544520D01*
X157068329Y-68534030D01*
X157091428Y-68525765D01*
X157115227Y-68519804D01*
X157139495Y-68516204D01*
X157163999Y-68515000D01*
X157814001Y-68515000D01*
X157838505Y-68516204D01*
G37*
G36*
X155788505Y-68516204D02*
G01*
X155812773Y-68519804D01*
X155836572Y-68525765D01*
X155859671Y-68534030D01*
X155881850Y-68544520D01*
X155902893Y-68557132D01*
X155922599Y-68571747D01*
X155940777Y-68588223D01*
X155957253Y-68606401D01*
X155971868Y-68626107D01*
X155984480Y-68647150D01*
X155994970Y-68669329D01*
X156003235Y-68692428D01*
X156009196Y-68716227D01*
X156012796Y-68740495D01*
X156014000Y-68764999D01*
X156014000Y-69665001D01*
X156012796Y-69689505D01*
X156009196Y-69713773D01*
X156003235Y-69737572D01*
X155994970Y-69760671D01*
X155984480Y-69782850D01*
X155971868Y-69803893D01*
X155957253Y-69823599D01*
X155940777Y-69841777D01*
X155922599Y-69858253D01*
X155902893Y-69872868D01*
X155881850Y-69885480D01*
X155859671Y-69895970D01*
X155836572Y-69904235D01*
X155812773Y-69910196D01*
X155788505Y-69913796D01*
X155764001Y-69915000D01*
X155113999Y-69915000D01*
X155089495Y-69913796D01*
X155065227Y-69910196D01*
X155041428Y-69904235D01*
X155018329Y-69895970D01*
X154996150Y-69885480D01*
X154975107Y-69872868D01*
X154955401Y-69858253D01*
X154937223Y-69841777D01*
X154920747Y-69823599D01*
X154906132Y-69803893D01*
X154893520Y-69782850D01*
X154883030Y-69760671D01*
X154874765Y-69737572D01*
X154868804Y-69713773D01*
X154865204Y-69689505D01*
X154864000Y-69665001D01*
X154864000Y-68764999D01*
X154865204Y-68740495D01*
X154868804Y-68716227D01*
X154874765Y-68692428D01*
X154883030Y-68669329D01*
X154893520Y-68647150D01*
X154906132Y-68626107D01*
X154920747Y-68606401D01*
X154937223Y-68588223D01*
X154955401Y-68571747D01*
X154975107Y-68557132D01*
X154996150Y-68544520D01*
X155018329Y-68534030D01*
X155041428Y-68525765D01*
X155065227Y-68519804D01*
X155089495Y-68516204D01*
X155113999Y-68515000D01*
X155764001Y-68515000D01*
X155788505Y-68516204D01*
G37*
M02*
