M48
; DRILL file {KiCad (5.1.5)-3} date 10.08.2021 22:26:21
; FORMAT={-:-/ absolute / metric / decimal}
; #@! TF.CreationDate,2021-08-10T22:26:21+02:00
; #@! TF.GenerationSoftware,Kicad,Pcbnew,(5.1.5)-3
; #@! TF.FileFunction,Plated,1,2,PTH
FMAT,2
METRIC
T1C0.400
T2C0.500
T3C0.800
T4C1.000
T5C3.200
%
G90
G05
T1
X128.27Y-70.866
X130.861Y-60.401
X131.623Y-76.098
X132.232Y-79.35
X133.401Y-64.618
X133.655Y-57.353
X134.01Y-81.89
X135.585Y-59.893
X135.687Y-76.302
X135.89Y-71.73
X137.312Y-62.636
X137.668Y-57.404
X139.446Y-65.532
X139.7Y-59.182
X142.24Y-57.912
X142.951Y-77.927
X143.459Y-65.126
X145.034Y-59.182
X145.136Y-81.585
X145.542Y-63.5
X146.406Y-72.898
X146.558Y-76.098
X147.066Y-56.896
X148.844Y-59.436
X148.895Y-82.042
X149.098Y-64.516
X152.4Y-57.404
X153.162Y-63.754
X153.264Y-81.94
X155.448Y-59.944
X157.683Y-81.331
X157.988Y-57.658
X158.14Y-63.449
X161.29Y-62.992
X161.849Y-81.89
X163.068Y-57.658
X163.322Y-59.944
X166.675Y-81.89
X168.148Y-57.658
X168.148Y-73.609
X168.656Y-59.588
X170.18Y-76.759
X170.231Y-71.171
X170.485Y-64.77
X171.958Y-59.69
X173.838Y-65.735
X173.99Y-57.404
X174.346Y-76.2
X174.904Y-81.585
X175.717Y-71.323
X176.733Y-59.487
X179.07Y-57.15
X179.73Y-60.147
X181.559Y-76.048
X181.915Y-57.404
X183.236Y-76.86
X183.54Y-73.508
X183.998Y-71.171
T2
X184.798Y-60.452
X185.501Y-58.755
X185.501Y-62.149
X187.198Y-58.052
X187.198Y-62.852
X188.895Y-58.755
X188.895Y-62.149
X189.598Y-60.452
X184.798Y-78.74
X185.501Y-77.043
X185.501Y-80.437
X187.198Y-76.34
X187.198Y-81.14
X188.895Y-77.043
X188.895Y-80.437
X189.598Y-78.74
X124.346Y-78.74
X125.049Y-77.043
X125.049Y-80.437
X126.746Y-76.34
X126.746Y-81.14
X128.443Y-77.043
X128.443Y-80.437
X129.146Y-78.74
X124.092Y-60.452
X124.795Y-58.755
X124.795Y-62.149
X126.492Y-58.052
X126.492Y-62.852
X128.189Y-58.755
X128.189Y-62.149
X128.892Y-60.452
T3
X148.59Y-71.628
X148.59Y-79.248
X151.13Y-71.628
X151.13Y-79.248
X153.67Y-71.628
X153.67Y-79.248
X156.21Y-71.628
X156.21Y-79.248
X158.75Y-71.628
X158.75Y-79.248
X161.29Y-71.628
X161.29Y-79.248
X163.83Y-71.628
X163.83Y-79.248
X166.37Y-71.628
X166.37Y-79.248
T4
X178.156Y-79.705
X180.696Y-79.705
X166.624Y-65.659
X166.624Y-68.199
X137.287Y-80.264
X139.827Y-80.264
T5
X187.198Y-60.452
X187.198Y-78.74
X126.746Y-78.74
X126.492Y-60.452
T0
M30
