G04 #@! TF.GenerationSoftware,KiCad,Pcbnew,(5.1.5)-3*
G04 #@! TF.CreationDate,2021-08-10T22:26:19+02:00*
G04 #@! TF.ProjectId,sma_bias_tester,736d615f-6269-4617-935f-746573746572,rev?*
G04 #@! TF.SameCoordinates,Original*
G04 #@! TF.FileFunction,Legend,Top*
G04 #@! TF.FilePolarity,Positive*
%FSLAX46Y46*%
G04 Gerber Fmt 4.6, Leading zero omitted, Abs format (unit mm)*
G04 Created by KiCad (PCBNEW (5.1.5)-3) date 2021-08-10 22:26:19*
%MOMM*%
%LPD*%
G04 APERTURE LIST*
%ADD10C,0.150000*%
%ADD11C,0.300000*%
%ADD12C,0.120000*%
G04 APERTURE END LIST*
D10*
X141892495Y-79767180D02*
X142463923Y-79767180D01*
X142178209Y-80767180D02*
X142178209Y-79767180D01*
X142797257Y-80767180D02*
X142797257Y-79767180D01*
X143178209Y-79767180D01*
X143273447Y-79814800D01*
X143321066Y-79862419D01*
X143368685Y-79957657D01*
X143368685Y-80100514D01*
X143321066Y-80195752D01*
X143273447Y-80243371D01*
X143178209Y-80290990D01*
X142797257Y-80290990D01*
X144321066Y-80767180D02*
X143749638Y-80767180D01*
X144035352Y-80767180D02*
X144035352Y-79767180D01*
X143940114Y-79910038D01*
X143844876Y-80005276D01*
X143749638Y-80052895D01*
X176330361Y-81799180D02*
X176663695Y-82799180D01*
X176997028Y-81799180D01*
X177758933Y-82751561D02*
X177663695Y-82799180D01*
X177473219Y-82799180D01*
X177377980Y-82751561D01*
X177330361Y-82703942D01*
X177282742Y-82608704D01*
X177282742Y-82322990D01*
X177330361Y-82227752D01*
X177377980Y-82180133D01*
X177473219Y-82132514D01*
X177663695Y-82132514D01*
X177758933Y-82180133D01*
X178616076Y-82751561D02*
X178520838Y-82799180D01*
X178330361Y-82799180D01*
X178235123Y-82751561D01*
X178187504Y-82703942D01*
X178139885Y-82608704D01*
X178139885Y-82322990D01*
X178187504Y-82227752D01*
X178235123Y-82180133D01*
X178330361Y-82132514D01*
X178520838Y-82132514D01*
X178616076Y-82180133D01*
X180330361Y-81846800D02*
X180235123Y-81799180D01*
X180092266Y-81799180D01*
X179949409Y-81846800D01*
X179854171Y-81942038D01*
X179806552Y-82037276D01*
X179758933Y-82227752D01*
X179758933Y-82370609D01*
X179806552Y-82561085D01*
X179854171Y-82656323D01*
X179949409Y-82751561D01*
X180092266Y-82799180D01*
X180187504Y-82799180D01*
X180330361Y-82751561D01*
X180377980Y-82703942D01*
X180377980Y-82370609D01*
X180187504Y-82370609D01*
X180806552Y-82799180D02*
X180806552Y-81799180D01*
X181377980Y-82799180D01*
X181377980Y-81799180D01*
X181854171Y-82799180D02*
X181854171Y-81799180D01*
X182092266Y-81799180D01*
X182235123Y-81846800D01*
X182330361Y-81942038D01*
X182377980Y-82037276D01*
X182425600Y-82227752D01*
X182425600Y-82370609D01*
X182377980Y-82561085D01*
X182330361Y-82656323D01*
X182235123Y-82751561D01*
X182092266Y-82799180D01*
X181854171Y-82799180D01*
D11*
X175690400Y-64202571D02*
X175976114Y-64202571D01*
X176118971Y-64274000D01*
X176261828Y-64416857D01*
X176333257Y-64702571D01*
X176333257Y-65202571D01*
X176261828Y-65488285D01*
X176118971Y-65631142D01*
X175976114Y-65702571D01*
X175690400Y-65702571D01*
X175547542Y-65631142D01*
X175404685Y-65488285D01*
X175333257Y-65202571D01*
X175333257Y-64702571D01*
X175404685Y-64416857D01*
X175547542Y-64274000D01*
X175690400Y-64202571D01*
X176976114Y-64202571D02*
X176976114Y-65416857D01*
X177047542Y-65559714D01*
X177118971Y-65631142D01*
X177261828Y-65702571D01*
X177547542Y-65702571D01*
X177690400Y-65631142D01*
X177761828Y-65559714D01*
X177833257Y-65416857D01*
X177833257Y-64202571D01*
X178333257Y-64202571D02*
X179190400Y-64202571D01*
X178761828Y-65702571D02*
X178761828Y-64202571D01*
X129770285Y-65702571D02*
X129770285Y-64202571D01*
X130484571Y-65702571D02*
X130484571Y-64202571D01*
X131341714Y-65702571D01*
X131341714Y-64202571D01*
X138674285Y-61106857D02*
X138888571Y-61178285D01*
X138959999Y-61249714D01*
X139031428Y-61392571D01*
X139031428Y-61606857D01*
X138959999Y-61749714D01*
X138888571Y-61821142D01*
X138745714Y-61892571D01*
X138174285Y-61892571D01*
X138174285Y-60392571D01*
X138674285Y-60392571D01*
X138817142Y-60464000D01*
X138888571Y-60535428D01*
X138959999Y-60678285D01*
X138959999Y-60821142D01*
X138888571Y-60964000D01*
X138817142Y-61035428D01*
X138674285Y-61106857D01*
X138174285Y-61106857D01*
X139674285Y-61892571D02*
X139674285Y-60392571D01*
X140317142Y-61464000D02*
X141031428Y-61464000D01*
X140174285Y-61892571D02*
X140674285Y-60392571D01*
X141174285Y-61892571D01*
X141602857Y-61821142D02*
X141817142Y-61892571D01*
X142174285Y-61892571D01*
X142317142Y-61821142D01*
X142388571Y-61749714D01*
X142459999Y-61606857D01*
X142459999Y-61464000D01*
X142388571Y-61321142D01*
X142317142Y-61249714D01*
X142174285Y-61178285D01*
X141888571Y-61106857D01*
X141745714Y-61035428D01*
X141674285Y-60964000D01*
X141602857Y-60821142D01*
X141602857Y-60678285D01*
X141674285Y-60535428D01*
X141745714Y-60464000D01*
X141888571Y-60392571D01*
X142245714Y-60392571D01*
X142459999Y-60464000D01*
X144031428Y-60392571D02*
X144531428Y-61892571D01*
X145031428Y-60392571D01*
X145745714Y-61892571D02*
X145602857Y-61821142D01*
X145531428Y-61749714D01*
X145459999Y-61606857D01*
X145459999Y-61178285D01*
X145531428Y-61035428D01*
X145602857Y-60964000D01*
X145745714Y-60892571D01*
X145959999Y-60892571D01*
X146102857Y-60964000D01*
X146174285Y-61035428D01*
X146245714Y-61178285D01*
X146245714Y-61606857D01*
X146174285Y-61749714D01*
X146102857Y-61821142D01*
X145959999Y-61892571D01*
X145745714Y-61892571D01*
X147102857Y-61892571D02*
X146959999Y-61821142D01*
X146888571Y-61678285D01*
X146888571Y-60392571D01*
X147459999Y-60892571D02*
X148031428Y-60892571D01*
X147674285Y-60392571D02*
X147674285Y-61678285D01*
X147745714Y-61821142D01*
X147888571Y-61892571D01*
X148031428Y-61892571D01*
X149174285Y-61892571D02*
X149174285Y-61106857D01*
X149102857Y-60964000D01*
X148959999Y-60892571D01*
X148674285Y-60892571D01*
X148531428Y-60964000D01*
X149174285Y-61821142D02*
X149031428Y-61892571D01*
X148674285Y-61892571D01*
X148531428Y-61821142D01*
X148459999Y-61678285D01*
X148459999Y-61535428D01*
X148531428Y-61392571D01*
X148674285Y-61321142D01*
X149031428Y-61321142D01*
X149174285Y-61249714D01*
X150531428Y-60892571D02*
X150531428Y-62106857D01*
X150459999Y-62249714D01*
X150388571Y-62321142D01*
X150245714Y-62392571D01*
X150031428Y-62392571D01*
X149888571Y-62321142D01*
X150531428Y-61821142D02*
X150388571Y-61892571D01*
X150102857Y-61892571D01*
X149959999Y-61821142D01*
X149888571Y-61749714D01*
X149817142Y-61606857D01*
X149817142Y-61178285D01*
X149888571Y-61035428D01*
X149959999Y-60964000D01*
X150102857Y-60892571D01*
X150388571Y-60892571D01*
X150531428Y-60964000D01*
X151817142Y-61821142D02*
X151674285Y-61892571D01*
X151388571Y-61892571D01*
X151245714Y-61821142D01*
X151174285Y-61678285D01*
X151174285Y-61106857D01*
X151245714Y-60964000D01*
X151388571Y-60892571D01*
X151674285Y-60892571D01*
X151817142Y-60964000D01*
X151888571Y-61106857D01*
X151888571Y-61249714D01*
X151174285Y-61392571D01*
X154317142Y-61892571D02*
X154317142Y-61106857D01*
X154245714Y-60964000D01*
X154102857Y-60892571D01*
X153817142Y-60892571D01*
X153674285Y-60964000D01*
X154317142Y-61821142D02*
X154174285Y-61892571D01*
X153817142Y-61892571D01*
X153674285Y-61821142D01*
X153602857Y-61678285D01*
X153602857Y-61535428D01*
X153674285Y-61392571D01*
X153817142Y-61321142D01*
X154174285Y-61321142D01*
X154317142Y-61249714D01*
X155031428Y-60892571D02*
X155031428Y-61892571D01*
X155031428Y-61035428D02*
X155102857Y-60964000D01*
X155245714Y-60892571D01*
X155459999Y-60892571D01*
X155602857Y-60964000D01*
X155674285Y-61106857D01*
X155674285Y-61892571D01*
X157031428Y-61892571D02*
X157031428Y-60392571D01*
X157031428Y-61821142D02*
X156888571Y-61892571D01*
X156602857Y-61892571D01*
X156459999Y-61821142D01*
X156388571Y-61749714D01*
X156317142Y-61606857D01*
X156317142Y-61178285D01*
X156388571Y-61035428D01*
X156459999Y-60964000D01*
X156602857Y-60892571D01*
X156888571Y-60892571D01*
X157031428Y-60964000D01*
X159745714Y-61749714D02*
X159674285Y-61821142D01*
X159459999Y-61892571D01*
X159317142Y-61892571D01*
X159102857Y-61821142D01*
X158959999Y-61678285D01*
X158888571Y-61535428D01*
X158817142Y-61249714D01*
X158817142Y-61035428D01*
X158888571Y-60749714D01*
X158959999Y-60606857D01*
X159102857Y-60464000D01*
X159317142Y-60392571D01*
X159459999Y-60392571D01*
X159674285Y-60464000D01*
X159745714Y-60535428D01*
X161031428Y-60892571D02*
X161031428Y-61892571D01*
X160388571Y-60892571D02*
X160388571Y-61678285D01*
X160459999Y-61821142D01*
X160602857Y-61892571D01*
X160817142Y-61892571D01*
X160959999Y-61821142D01*
X161031428Y-61749714D01*
X161745714Y-61892571D02*
X161745714Y-60892571D01*
X161745714Y-61178285D02*
X161817142Y-61035428D01*
X161888571Y-60964000D01*
X162031428Y-60892571D01*
X162174285Y-60892571D01*
X162674285Y-61892571D02*
X162674285Y-60892571D01*
X162674285Y-61178285D02*
X162745714Y-61035428D01*
X162817142Y-60964000D01*
X162959999Y-60892571D01*
X163102857Y-60892571D01*
X164174285Y-61821142D02*
X164031428Y-61892571D01*
X163745714Y-61892571D01*
X163602857Y-61821142D01*
X163531428Y-61678285D01*
X163531428Y-61106857D01*
X163602857Y-60964000D01*
X163745714Y-60892571D01*
X164031428Y-60892571D01*
X164174285Y-60964000D01*
X164245714Y-61106857D01*
X164245714Y-61249714D01*
X163531428Y-61392571D01*
X164888571Y-60892571D02*
X164888571Y-61892571D01*
X164888571Y-61035428D02*
X164959999Y-60964000D01*
X165102857Y-60892571D01*
X165317142Y-60892571D01*
X165459999Y-60964000D01*
X165531428Y-61106857D01*
X165531428Y-61892571D01*
X166031428Y-60892571D02*
X166602857Y-60892571D01*
X166245714Y-60392571D02*
X166245714Y-61678285D01*
X166317142Y-61821142D01*
X166459999Y-61892571D01*
X166602857Y-61892571D01*
X168031428Y-60392571D02*
X168888571Y-60392571D01*
X168459999Y-61892571D02*
X168459999Y-60392571D01*
X169959999Y-61821142D02*
X169817142Y-61892571D01*
X169531428Y-61892571D01*
X169388571Y-61821142D01*
X169317142Y-61678285D01*
X169317142Y-61106857D01*
X169388571Y-60964000D01*
X169531428Y-60892571D01*
X169817142Y-60892571D01*
X169959999Y-60964000D01*
X170031428Y-61106857D01*
X170031428Y-61249714D01*
X169317142Y-61392571D01*
X170602857Y-61821142D02*
X170745714Y-61892571D01*
X171031428Y-61892571D01*
X171174285Y-61821142D01*
X171245714Y-61678285D01*
X171245714Y-61606857D01*
X171174285Y-61464000D01*
X171031428Y-61392571D01*
X170817142Y-61392571D01*
X170674285Y-61321142D01*
X170602857Y-61178285D01*
X170602857Y-61106857D01*
X170674285Y-60964000D01*
X170817142Y-60892571D01*
X171031428Y-60892571D01*
X171174285Y-60964000D01*
X171674285Y-60892571D02*
X172245714Y-60892571D01*
X171888571Y-60392571D02*
X171888571Y-61678285D01*
X171959999Y-61821142D01*
X172102857Y-61892571D01*
X172245714Y-61892571D01*
X173317142Y-61821142D02*
X173174285Y-61892571D01*
X172888571Y-61892571D01*
X172745714Y-61821142D01*
X172674285Y-61678285D01*
X172674285Y-61106857D01*
X172745714Y-60964000D01*
X172888571Y-60892571D01*
X173174285Y-60892571D01*
X173317142Y-60964000D01*
X173388571Y-61106857D01*
X173388571Y-61249714D01*
X172674285Y-61392571D01*
X174031428Y-61892571D02*
X174031428Y-60892571D01*
X174031428Y-61178285D02*
X174102857Y-61035428D01*
X174174285Y-60964000D01*
X174317142Y-60892571D01*
X174459999Y-60892571D01*
D12*
X187824800Y-67384400D02*
X187824800Y-66274400D01*
X187824800Y-70174400D02*
X187824800Y-69064400D01*
X191534800Y-67384400D02*
X191534800Y-66274400D01*
X191534800Y-70174400D02*
X191534800Y-69064400D01*
X187274800Y-68224400D02*
X186774800Y-67974400D01*
X186774800Y-67974400D02*
X186774800Y-68474400D01*
X186774800Y-68474400D02*
X187274800Y-68224400D01*
X125763600Y-69013600D02*
X125763600Y-70123600D01*
X125763600Y-66223600D02*
X125763600Y-67333600D01*
X122053600Y-69013600D02*
X122053600Y-70123600D01*
X122053600Y-66223600D02*
X122053600Y-67333600D01*
X126313600Y-68173600D02*
X126813600Y-68423600D01*
X126813600Y-68423600D02*
X126813600Y-67923600D01*
X126813600Y-67923600D02*
X126313600Y-68173600D01*
X167954000Y-64329000D02*
X165294000Y-64329000D01*
X167954000Y-66929000D02*
X167954000Y-64329000D01*
X165294000Y-66929000D02*
X165294000Y-64329000D01*
X167954000Y-66929000D02*
X165294000Y-66929000D01*
X167954000Y-68199000D02*
X167954000Y-69529000D01*
X167954000Y-69529000D02*
X166624000Y-69529000D01*
X156202748Y-66473000D02*
X156725252Y-66473000D01*
X156202748Y-67893000D02*
X156725252Y-67893000D01*
X179163200Y-70061600D02*
X179163200Y-72361600D01*
X171763200Y-70061600D02*
X179163200Y-70061600D01*
X171763200Y-72361600D02*
X171763200Y-70061600D01*
X171763200Y-77461600D02*
X171763200Y-75161600D01*
X179163200Y-77461600D02*
X171763200Y-77461600D01*
X179163200Y-75161600D02*
X179163200Y-77461600D01*
X180950800Y-69283948D02*
X180950800Y-69806452D01*
X182370800Y-69283948D02*
X182370800Y-69806452D01*
X131977200Y-69857252D02*
X131977200Y-69334748D01*
X130557200Y-69857252D02*
X130557200Y-69334748D01*
X165735000Y-76114667D02*
X167005000Y-76114667D01*
X166935000Y-77468000D02*
X166935000Y-76114667D01*
X166815000Y-77468000D02*
X166815000Y-76114667D01*
X166695000Y-77468000D02*
X166695000Y-76114667D01*
X166575000Y-77468000D02*
X166575000Y-76114667D01*
X166455000Y-77468000D02*
X166455000Y-76114667D01*
X166335000Y-77468000D02*
X166335000Y-76114667D01*
X166215000Y-77468000D02*
X166215000Y-76114667D01*
X166095000Y-77468000D02*
X166095000Y-76114667D01*
X165975000Y-77468000D02*
X165975000Y-76114667D01*
X165855000Y-77468000D02*
X165855000Y-76114667D01*
X165735000Y-73408000D02*
X165735000Y-77468000D01*
X167005000Y-73408000D02*
X165735000Y-73408000D01*
X167005000Y-77468000D02*
X167005000Y-73408000D01*
X165735000Y-77468000D02*
X167005000Y-77468000D01*
X163195000Y-76114667D02*
X164465000Y-76114667D01*
X164395000Y-77468000D02*
X164395000Y-76114667D01*
X164275000Y-77468000D02*
X164275000Y-76114667D01*
X164155000Y-77468000D02*
X164155000Y-76114667D01*
X164035000Y-77468000D02*
X164035000Y-76114667D01*
X163915000Y-77468000D02*
X163915000Y-76114667D01*
X163795000Y-77468000D02*
X163795000Y-76114667D01*
X163675000Y-77468000D02*
X163675000Y-76114667D01*
X163555000Y-77468000D02*
X163555000Y-76114667D01*
X163435000Y-77468000D02*
X163435000Y-76114667D01*
X163315000Y-77468000D02*
X163315000Y-76114667D01*
X163195000Y-73408000D02*
X163195000Y-77468000D01*
X164465000Y-73408000D02*
X163195000Y-73408000D01*
X164465000Y-77468000D02*
X164465000Y-73408000D01*
X163195000Y-77468000D02*
X164465000Y-77468000D01*
X160655000Y-76114667D02*
X161925000Y-76114667D01*
X161855000Y-77468000D02*
X161855000Y-76114667D01*
X161735000Y-77468000D02*
X161735000Y-76114667D01*
X161615000Y-77468000D02*
X161615000Y-76114667D01*
X161495000Y-77468000D02*
X161495000Y-76114667D01*
X161375000Y-77468000D02*
X161375000Y-76114667D01*
X161255000Y-77468000D02*
X161255000Y-76114667D01*
X161135000Y-77468000D02*
X161135000Y-76114667D01*
X161015000Y-77468000D02*
X161015000Y-76114667D01*
X160895000Y-77468000D02*
X160895000Y-76114667D01*
X160775000Y-77468000D02*
X160775000Y-76114667D01*
X160655000Y-73408000D02*
X160655000Y-77468000D01*
X161925000Y-73408000D02*
X160655000Y-73408000D01*
X161925000Y-77468000D02*
X161925000Y-73408000D01*
X160655000Y-77468000D02*
X161925000Y-77468000D01*
X158115000Y-76114667D02*
X159385000Y-76114667D01*
X159315000Y-77468000D02*
X159315000Y-76114667D01*
X159195000Y-77468000D02*
X159195000Y-76114667D01*
X159075000Y-77468000D02*
X159075000Y-76114667D01*
X158955000Y-77468000D02*
X158955000Y-76114667D01*
X158835000Y-77468000D02*
X158835000Y-76114667D01*
X158715000Y-77468000D02*
X158715000Y-76114667D01*
X158595000Y-77468000D02*
X158595000Y-76114667D01*
X158475000Y-77468000D02*
X158475000Y-76114667D01*
X158355000Y-77468000D02*
X158355000Y-76114667D01*
X158235000Y-77468000D02*
X158235000Y-76114667D01*
X158115000Y-73408000D02*
X158115000Y-77468000D01*
X159385000Y-73408000D02*
X158115000Y-73408000D01*
X159385000Y-77468000D02*
X159385000Y-73408000D01*
X158115000Y-77468000D02*
X159385000Y-77468000D01*
X155575000Y-76114667D02*
X156845000Y-76114667D01*
X156775000Y-77468000D02*
X156775000Y-76114667D01*
X156655000Y-77468000D02*
X156655000Y-76114667D01*
X156535000Y-77468000D02*
X156535000Y-76114667D01*
X156415000Y-77468000D02*
X156415000Y-76114667D01*
X156295000Y-77468000D02*
X156295000Y-76114667D01*
X156175000Y-77468000D02*
X156175000Y-76114667D01*
X156055000Y-77468000D02*
X156055000Y-76114667D01*
X155935000Y-77468000D02*
X155935000Y-76114667D01*
X155815000Y-77468000D02*
X155815000Y-76114667D01*
X155695000Y-77468000D02*
X155695000Y-76114667D01*
X155575000Y-73408000D02*
X155575000Y-77468000D01*
X156845000Y-73408000D02*
X155575000Y-73408000D01*
X156845000Y-77468000D02*
X156845000Y-73408000D01*
X155575000Y-77468000D02*
X156845000Y-77468000D01*
X153035000Y-76114667D02*
X154305000Y-76114667D01*
X154235000Y-77468000D02*
X154235000Y-76114667D01*
X154115000Y-77468000D02*
X154115000Y-76114667D01*
X153995000Y-77468000D02*
X153995000Y-76114667D01*
X153875000Y-77468000D02*
X153875000Y-76114667D01*
X153755000Y-77468000D02*
X153755000Y-76114667D01*
X153635000Y-77468000D02*
X153635000Y-76114667D01*
X153515000Y-77468000D02*
X153515000Y-76114667D01*
X153395000Y-77468000D02*
X153395000Y-76114667D01*
X153275000Y-77468000D02*
X153275000Y-76114667D01*
X153155000Y-77468000D02*
X153155000Y-76114667D01*
X153035000Y-73408000D02*
X153035000Y-77468000D01*
X154305000Y-73408000D02*
X153035000Y-73408000D01*
X154305000Y-77468000D02*
X154305000Y-73408000D01*
X153035000Y-77468000D02*
X154305000Y-77468000D01*
X150495000Y-76114667D02*
X151765000Y-76114667D01*
X151695000Y-77468000D02*
X151695000Y-76114667D01*
X151575000Y-77468000D02*
X151575000Y-76114667D01*
X151455000Y-77468000D02*
X151455000Y-76114667D01*
X151335000Y-77468000D02*
X151335000Y-76114667D01*
X151215000Y-77468000D02*
X151215000Y-76114667D01*
X151095000Y-77468000D02*
X151095000Y-76114667D01*
X150975000Y-77468000D02*
X150975000Y-76114667D01*
X150855000Y-77468000D02*
X150855000Y-76114667D01*
X150735000Y-77468000D02*
X150735000Y-76114667D01*
X150615000Y-77468000D02*
X150615000Y-76114667D01*
X150495000Y-73408000D02*
X150495000Y-77468000D01*
X151765000Y-73408000D02*
X150495000Y-73408000D01*
X151765000Y-77468000D02*
X151765000Y-73408000D01*
X150495000Y-77468000D02*
X151765000Y-77468000D01*
X147955000Y-76114667D02*
X149225000Y-76114667D01*
X149155000Y-77468000D02*
X149155000Y-76114667D01*
X149035000Y-77468000D02*
X149035000Y-76114667D01*
X148915000Y-77468000D02*
X148915000Y-76114667D01*
X148795000Y-77468000D02*
X148795000Y-76114667D01*
X148675000Y-77468000D02*
X148675000Y-76114667D01*
X148555000Y-77468000D02*
X148555000Y-76114667D01*
X148435000Y-77468000D02*
X148435000Y-76114667D01*
X148315000Y-77468000D02*
X148315000Y-76114667D01*
X148195000Y-77468000D02*
X148195000Y-76114667D01*
X148075000Y-77468000D02*
X148075000Y-76114667D01*
X147955000Y-73408000D02*
X147955000Y-77468000D01*
X149225000Y-73408000D02*
X147955000Y-73408000D01*
X149225000Y-77468000D02*
X149225000Y-73408000D01*
X147955000Y-77468000D02*
X149225000Y-77468000D01*
X145930000Y-80628000D02*
X147313000Y-80628000D01*
X145930000Y-80628000D02*
X145930000Y-79244000D01*
X146170000Y-70488000D02*
X168791000Y-70488000D01*
X146170000Y-80388000D02*
X168791000Y-80388000D01*
X168791000Y-80388000D02*
X168791000Y-70488000D01*
X146170000Y-80388000D02*
X146170000Y-70488000D01*
X143771252Y-74474000D02*
X143248748Y-74474000D01*
X143771252Y-75894000D02*
X143248748Y-75894000D01*
X140809200Y-70417200D02*
X140809200Y-72717200D01*
X133409200Y-70417200D02*
X140809200Y-70417200D01*
X133409200Y-72717200D02*
X133409200Y-70417200D01*
X133409200Y-77817200D02*
X133409200Y-75517200D01*
X140809200Y-77817200D02*
X133409200Y-77817200D01*
X140809200Y-75517200D02*
X140809200Y-77817200D01*
X176825600Y-81035200D02*
X176825600Y-79705200D01*
X178155600Y-81035200D02*
X176825600Y-81035200D01*
X179425600Y-81035200D02*
X179425600Y-78375200D01*
X179425600Y-78375200D02*
X182025600Y-78375200D01*
X179425600Y-81035200D02*
X182025600Y-81035200D01*
X182025600Y-81035200D02*
X182025600Y-78375200D01*
X135957000Y-81594000D02*
X135957000Y-80264000D01*
X137287000Y-81594000D02*
X135957000Y-81594000D01*
X138557000Y-81594000D02*
X138557000Y-78934000D01*
X138557000Y-78934000D02*
X141157000Y-78934000D01*
X138557000Y-81594000D02*
X141157000Y-81594000D01*
X141157000Y-81594000D02*
X141157000Y-78934000D01*
X180951600Y-62834400D02*
X182411600Y-62834400D01*
X180951600Y-65994400D02*
X183111600Y-65994400D01*
X180951600Y-65994400D02*
X180951600Y-65064400D01*
X180951600Y-62834400D02*
X180951600Y-63764400D01*
X145370000Y-71557000D02*
X142510000Y-71557000D01*
X145370000Y-73477000D02*
X145370000Y-71557000D01*
X142510000Y-73477000D02*
X145370000Y-73477000D01*
X172972800Y-80002748D02*
X172972800Y-80525252D01*
X171552800Y-80002748D02*
X171552800Y-80525252D01*
X156202748Y-69925000D02*
X156725252Y-69925000D01*
X156202748Y-68505000D02*
X156725252Y-68505000D01*
D10*
X159218333Y-67540142D02*
X159170714Y-67587761D01*
X159027857Y-67635380D01*
X158932619Y-67635380D01*
X158789761Y-67587761D01*
X158694523Y-67492523D01*
X158646904Y-67397285D01*
X158599285Y-67206809D01*
X158599285Y-67063952D01*
X158646904Y-66873476D01*
X158694523Y-66778238D01*
X158789761Y-66683000D01*
X158932619Y-66635380D01*
X159027857Y-66635380D01*
X159170714Y-66683000D01*
X159218333Y-66730619D01*
X159551666Y-66635380D02*
X160170714Y-66635380D01*
X159837380Y-67016333D01*
X159980238Y-67016333D01*
X160075476Y-67063952D01*
X160123095Y-67111571D01*
X160170714Y-67206809D01*
X160170714Y-67444904D01*
X160123095Y-67540142D01*
X160075476Y-67587761D01*
X159980238Y-67635380D01*
X159694523Y-67635380D01*
X159599285Y-67587761D01*
X159551666Y-67540142D01*
X175296533Y-74213980D02*
X174820342Y-74213980D01*
X174820342Y-73213980D01*
X175582247Y-73309219D02*
X175629866Y-73261600D01*
X175725104Y-73213980D01*
X175963200Y-73213980D01*
X176058438Y-73261600D01*
X176106057Y-73309219D01*
X176153676Y-73404457D01*
X176153676Y-73499695D01*
X176106057Y-73642552D01*
X175534628Y-74213980D01*
X176153676Y-74213980D01*
X181544933Y-73096380D02*
X181068742Y-73096380D01*
X181068742Y-72096380D01*
X182306838Y-72429714D02*
X182306838Y-73096380D01*
X182068742Y-72048761D02*
X181830647Y-72763047D01*
X182449695Y-72763047D01*
X130897333Y-73096380D02*
X130421142Y-73096380D01*
X130421142Y-72096380D01*
X131135428Y-72096380D02*
X131754476Y-72096380D01*
X131421142Y-72477333D01*
X131564000Y-72477333D01*
X131659238Y-72524952D01*
X131706857Y-72572571D01*
X131754476Y-72667809D01*
X131754476Y-72905904D01*
X131706857Y-73001142D01*
X131659238Y-73048761D01*
X131564000Y-73096380D01*
X131278285Y-73096380D01*
X131183047Y-73048761D01*
X131135428Y-73001142D01*
X143343333Y-77668380D02*
X143010000Y-77192190D01*
X142771904Y-77668380D02*
X142771904Y-76668380D01*
X143152857Y-76668380D01*
X143248095Y-76716000D01*
X143295714Y-76763619D01*
X143343333Y-76858857D01*
X143343333Y-77001714D01*
X143295714Y-77096952D01*
X143248095Y-77144571D01*
X143152857Y-77192190D01*
X142771904Y-77192190D01*
X144295714Y-77668380D02*
X143724285Y-77668380D01*
X144010000Y-77668380D02*
X144010000Y-76668380D01*
X143914761Y-76811238D01*
X143819523Y-76906476D01*
X143724285Y-76954095D01*
X136942533Y-74518780D02*
X136466342Y-74518780D01*
X136466342Y-73518780D01*
X137799676Y-74518780D02*
X137228247Y-74518780D01*
X137513961Y-74518780D02*
X137513961Y-73518780D01*
X137418723Y-73661638D01*
X137323485Y-73756876D01*
X137228247Y-73804495D01*
X180973504Y-62072780D02*
X180973504Y-61072780D01*
X181211600Y-61072780D01*
X181354457Y-61120400D01*
X181449695Y-61215638D01*
X181497314Y-61310876D01*
X181544933Y-61501352D01*
X181544933Y-61644209D01*
X181497314Y-61834685D01*
X181449695Y-61929923D01*
X181354457Y-62025161D01*
X181211600Y-62072780D01*
X180973504Y-62072780D01*
X181925885Y-61168019D02*
X181973504Y-61120400D01*
X182068742Y-61072780D01*
X182306838Y-61072780D01*
X182402076Y-61120400D01*
X182449695Y-61168019D01*
X182497314Y-61263257D01*
X182497314Y-61358495D01*
X182449695Y-61501352D01*
X181878266Y-62072780D01*
X182497314Y-62072780D01*
X142898904Y-70810380D02*
X142898904Y-69810380D01*
X143137000Y-69810380D01*
X143279857Y-69858000D01*
X143375095Y-69953238D01*
X143422714Y-70048476D01*
X143470333Y-70238952D01*
X143470333Y-70381809D01*
X143422714Y-70572285D01*
X143375095Y-70667523D01*
X143279857Y-70762761D01*
X143137000Y-70810380D01*
X142898904Y-70810380D01*
X144422714Y-70810380D02*
X143851285Y-70810380D01*
X144137000Y-70810380D02*
X144137000Y-69810380D01*
X144041761Y-69953238D01*
X143946523Y-70048476D01*
X143851285Y-70096095D01*
X169759333Y-81941942D02*
X169711714Y-81989561D01*
X169568857Y-82037180D01*
X169473619Y-82037180D01*
X169330761Y-81989561D01*
X169235523Y-81894323D01*
X169187904Y-81799085D01*
X169140285Y-81608609D01*
X169140285Y-81465752D01*
X169187904Y-81275276D01*
X169235523Y-81180038D01*
X169330761Y-81084800D01*
X169473619Y-81037180D01*
X169568857Y-81037180D01*
X169711714Y-81084800D01*
X169759333Y-81132419D01*
X170140285Y-81132419D02*
X170187904Y-81084800D01*
X170283142Y-81037180D01*
X170521238Y-81037180D01*
X170616476Y-81084800D01*
X170664095Y-81132419D01*
X170711714Y-81227657D01*
X170711714Y-81322895D01*
X170664095Y-81465752D01*
X170092666Y-82037180D01*
X170711714Y-82037180D01*
X159218333Y-69699142D02*
X159170714Y-69746761D01*
X159027857Y-69794380D01*
X158932619Y-69794380D01*
X158789761Y-69746761D01*
X158694523Y-69651523D01*
X158646904Y-69556285D01*
X158599285Y-69365809D01*
X158599285Y-69222952D01*
X158646904Y-69032476D01*
X158694523Y-68937238D01*
X158789761Y-68842000D01*
X158932619Y-68794380D01*
X159027857Y-68794380D01*
X159170714Y-68842000D01*
X159218333Y-68889619D01*
X160170714Y-69794380D02*
X159599285Y-69794380D01*
X159885000Y-69794380D02*
X159885000Y-68794380D01*
X159789761Y-68937238D01*
X159694523Y-69032476D01*
X159599285Y-69080095D01*
M02*
