G04 #@! TF.GenerationSoftware,KiCad,Pcbnew,(5.1.5)-3*
G04 #@! TF.CreationDate,2021-08-10T22:26:19+02:00*
G04 #@! TF.ProjectId,sma_bias_tester,736d615f-6269-4617-935f-746573746572,rev?*
G04 #@! TF.SameCoordinates,Original*
G04 #@! TF.FileFunction,Profile,NP*
%FSLAX46Y46*%
G04 Gerber Fmt 4.6, Leading zero omitted, Abs format (unit mm)*
G04 Created by KiCad (PCBNEW (5.1.5)-3) date 2021-08-10 22:26:19*
%MOMM*%
%LPD*%
G04 APERTURE LIST*
%ADD10C,0.050000*%
G04 APERTURE END LIST*
D10*
X186690000Y-83312000D02*
X127000000Y-83312000D01*
X121920000Y-60960000D02*
X121920000Y-78232000D01*
X127000000Y-83312000D02*
G75*
G02X121920000Y-78232000I0J5080000D01*
G01*
X191770000Y-78232000D02*
G75*
G02X186690000Y-83312000I-5080000J0D01*
G01*
X191770000Y-60960000D02*
X191770000Y-78232000D01*
X121920000Y-60960000D02*
G75*
G02X127000000Y-55880000I5080000J0D01*
G01*
X186690000Y-55880000D02*
G75*
G02X191770000Y-60960000I0J-5080000D01*
G01*
X127000000Y-55880000D02*
X186690000Y-55880000D01*
M02*
